…
pwr_grid(h=seq(0.3,0.9,0.1),n=80:90,sig.level=0.05,alternative="greater") %>% 
  pwr_tidy(test_function = pwr.2p.test)
#> # A tibble: 77 x 6
#>        n     h sig.level alternative query power
#>    <int> <dbl>     <dbl> <chr>       <chr> <dbl>
#>  1    80   0.3      0.05 greater     power 0.600
#>  2    80   0.4      0.05 greater     power 0.812
#>  3    80   0.5      0.05 greater     power 0.935
#>  4    80   0.6      0.05 greater     power 0.984
#>  5    80   0.7      0.05 greater     power 0.997
#>  6    80   0.8      0.05 greater     power 1.000
#>  7    80   0.9      0.05 greater     power 1.000
#>  8    81   0.3      0.05 greater     power 0.604
#>  9    81   0.4      0.05 greater     power 0.816
#> 10    81   0.5      0.05 greater     power 0.938
#> # ... with 67 more rows
```
…
